<?xml version="1.0" encoding="utf-8"?>
<!-- Generator: Adobe Illustrator 24.3.0, SVG Export Plug-In . SVG Version: 6.00 Build 0)  -->
<svg version="1.1" id="Layer_1" focusable="false" xmlns="http://www.w3.org/2000/svg" xmlns:xlink="http://www.w3.org/1999/xlink"
	 x="0px" y="0px" viewBox="0 0 512 512" style="enable-background:new 0 0 512 512;" xml:space="preserve">
<style type="text/css">
	.st0{fill:#FFCC00;}
</style>
<path class="st0" d="M351.6,188.5h-81.1l30-91.3c2.8-10.7-5.3-21.2-16.3-21.2H182.9c-8.4,0-15.6,6.3-16.7,14.6l-22.5,168.8
	c-1.3,10.1,6.5,19.1,16.7,19.1h83.5l-32.4,136.8c-2.5,10.7,5.6,20.7,16.4,20.7c5.9,0,11.5-3.1,14.6-8.4l123.8-213.8
	C372.7,202.6,364.6,188.5,351.6,188.5z"/>
</svg>
